{
  "entrypoint": "index.html",
  "shell": "src/my-memeservice.html",
  "fragments": [
    "src/my-upload.html",
    "src/my-admin.html",
    "src/view404.html",
    "src/my-work.html"
  ],
  "sources": [
    "src/**/*",
    "images/**/*"
  ],
  "extraDependencies": [
    "manifest.json",
    "bower_components/webcomponentsjs/*.js"
  ],
  "lint": {
    "rules": ["polymer-2"]
  },
  "builds": [
    {
      "name": "default",
      "js": {"minify": true},
      "css": {"minify": true},
      "html": {"minify": true}
    },
    {
      "name": "bundled",
      "bundle": true,
      "js": {"compile": true, "minify": true},
      "css": {"minify": true},
      "html": {"minify": true}
    },
    {
      "name": "unbundled",
      "js": {"compile": false},
      "css": {"minify": false},
      "html": {"minify": false}
    }
  ] 
}
